<svg viewBox="0 0 520 95" fill="none" xmlns="http://www.w3.org/2000/svg">
  <rect x="1" y="6" width="88" height="88" rx="9" fill="white" stroke="black" stroke-width="2" />
  <text fill="black" xml:space="preserve" style="white-space: pre" font-family="Oswald" font-size="30" font-weight="500" letter-spacing="0em">
    <tspan x="27.3613" y="60.56">01.</tspan>
  </text>
  <text fill="black" xml:space="preserve" style="white-space: pre" font-family="Oswald" font-size="17" font-weight="500" letter-spacing="0em">
    <tspan x="99.3008" y="20.184">Goal/Mission</tspan>
  </text>
  <text fill="black" xml:space="preserve" style="white-space: pre" font-family="Noto Sans TC" font-size="18" letter-spacing="0em">
    <tspan x="132" y="45.848">&#x63d0;&#x4f9b;&#x672a;&#x4f86;&#x5167;&#x5bb9;&#x652f;&#x6301;&#x65b9;&#x6848;&#xff0c;&#x5354;&#x52a9;&#x964d;&#x4f4e;&#x539f;&#x578b;&#x958b;&#x767c;&#13;</tspan>
    <tspan x="132" y="75.848">&#x6210;&#x672c;&#x8207;&#x63d0;&#x5347;&#x7522;&#x88fd;&#x8cea;&#x91cf;</tspan>
  </text>
  <path fill-rule="evenodd" clip-rule="evenodd" d="M100 95H510C515.523 95 520 90.5229 520 85V15C520 9.47715 515.523 5 510 5H190V7H510C514.418 7 518 10.5817 518 15V85C518 89.4183 514.418 93 510 93H100V95Z" fill="black" />
</svg>