<svg width="30" height="30" viewBox="0 0 30 30" fill="none" xmlns="http://www.w3.org/2000/svg">
<path d="M25.0769 8.83784H20.2692C20.2692 7.28955 19.6614 5.80467 18.5795 4.70986C17.4975 3.61506 16.0301 3 14.5 3C12.9699 3 11.5025 3.61506 10.4205 4.70986C9.3386 5.80467 8.73077 7.28955 8.73077 8.83784H3.92308C3.41305 8.83784 2.9239 9.04286 2.56326 9.40779C2.20261 9.77273 2 10.2677 2 10.7838V25.3784C2 25.8945 2.20261 26.3894 2.56326 26.7544C2.9239 27.1193 3.41305 27.3243 3.92308 27.3243H25.0769C25.587 27.3243 26.0761 27.1193 26.4367 26.7544C26.7974 26.3894 27 25.8945 27 25.3784V10.7838C27 10.2677 26.7974 9.77273 26.4367 9.40779C26.0761 9.04286 25.587 8.83784 25.0769 8.83784ZM10.6538 13.7027C10.6538 13.9608 10.5525 14.2082 10.3722 14.3907C10.1919 14.5732 9.94732 14.6757 9.69231 14.6757C9.43729 14.6757 9.19272 14.5732 9.0124 14.3907C8.83207 14.2082 8.73077 13.9608 8.73077 13.7027V11.7568C8.73077 11.4987 8.83207 11.2512 9.0124 11.0688C9.19272 10.8863 9.43729 10.7838 9.69231 10.7838C9.94732 10.7838 10.1919 10.8863 10.3722 11.0688C10.5525 11.2512 10.6538 11.4987 10.6538 11.7568V13.7027ZM14.5 4.94595C15.5201 4.94595 16.4983 5.35598 17.2196 6.08585C17.9409 6.81573 18.3462 7.80564 18.3462 8.83784H10.6538C10.6538 7.80564 11.0591 6.81573 11.7804 6.08585C12.5017 5.35598 13.4799 4.94595 14.5 4.94595ZM20.2692 13.7027C20.2692 13.9608 20.1679 14.2082 19.9876 14.3907C19.8073 14.5732 19.5627 14.6757 19.3077 14.6757C19.0527 14.6757 18.8081 14.5732 18.6278 14.3907C18.4475 14.2082 18.3462 13.9608 18.3462 13.7027V11.7568C18.3462 11.4987 18.4475 11.2512 18.6278 11.0688C18.8081 10.8863 19.0527 10.7838 19.3077 10.7838C19.5627 10.7838 19.8073 10.8863 19.9876 11.0688C20.1679 11.2512 20.2692 11.4987 20.2692 11.7568V13.7027Z" fill="#333333"/>
<line x1="2" y1="17.3647" x2="27" y2="17.3647" stroke="white"/>
</svg>
