<svg width="18" height="20" viewBox="0 0 18 20" fill="none" xmlns="http://www.w3.org/2000/svg">
  <rect x="1" y="7" width="16" height="12" stroke="currentColor" stroke-width="2" />
  <rect y="3" width="18" height="5" fill="currentColor" />
  <rect x="3" width="2" height="3" fill="currentColor" />
  <rect x="13" width="2" height="3" fill="currentColor" />
  <rect x="4" y="10" width="2" height="2" fill="currentColor" />
  <rect x="8" y="10" width="2" height="2" fill="currentColor" />
  <rect x="12" y="10" width="2" height="2" fill="currentColor" />
  <rect x="4" y="14" width="2" height="2" fill="currentColor" />
  <rect x="8" y="14" width="2" height="2" fill="currentColor" />
</svg>