<svg width="50" height="50" viewBox="0 0 50 50" fill="none" xmlns="http://www.w3.org/2000/svg">
<path opacity="0.3" d="M50.0006 25H38.1756C36.5438 24.9584 34.9367 24.5919 33.4483 23.9217C31.9599 23.2515 30.6201 22.2912 29.5074 21.0969C28.3946 19.9027 27.5312 18.4985 26.9677 16.9666C26.4042 15.4346 26.1519 13.8056 26.2256 12.175V0H13.9506C10.2108 0.0527152 6.64397 1.58393 4.0299 4.2589C1.41583 6.93387 -0.0328464 10.535 0.000565373 14.275V35.725C-0.0328464 39.465 1.41583 43.0661 4.0299 45.7411C6.64397 48.4161 10.2108 49.9473 13.9506 50H36.0006C39.747 49.9538 43.3227 48.4263 45.9462 45.7514C48.5696 43.0764 50.0273 39.4716 50.0006 35.725V25Z" fill="#999999"/>
<path d="M50.0024 21.075H38.1774C37.041 21.0407 35.9232 20.7774 34.8909 20.3008C33.8586 19.8243 32.9331 19.1443 32.1699 18.3017C31.4066 17.4591 30.8212 16.471 30.4488 15.3968C30.0763 14.3226 29.9245 13.1843 30.0024 12.05V0L50.0024 21.075ZM18.3274 22.025L18.0024 21.825H17.8024C17.5905 21.7279 17.3605 21.6768 17.1274 21.675H16.9274C16.7532 21.6513 16.5766 21.6513 16.4024 21.675L16.1524 21.825H15.9024L8.2524 28.175C8.05668 28.3307 7.89362 28.5235 7.77257 28.7423C7.65152 28.9611 7.57486 29.2017 7.54699 29.4502C7.51912 29.6987 7.54059 29.9503 7.61015 30.1905C7.67972 30.4307 7.79603 30.6548 7.95239 30.85C8.12054 31.0758 8.33932 31.2591 8.59115 31.385C8.84299 31.5109 9.12084 31.576 9.4024 31.575C9.83113 31.5718 10.2458 31.4218 10.5774 31.15L15.1774 27.5V40.475C15.1774 40.9723 15.3749 41.4492 15.7266 41.8008C16.0782 42.1525 16.5551 42.35 17.0524 42.35C17.5497 42.35 18.0266 42.1525 18.3782 41.8008C18.7299 41.4492 18.9274 40.9723 18.9274 40.475V27.625L22.9274 31.1C23.1128 31.2646 23.3294 31.3902 23.5642 31.4694C23.7991 31.5487 24.0476 31.5799 24.2947 31.5612C24.5419 31.5426 24.7829 31.4744 25.0032 31.3608C25.2235 31.2472 25.4188 31.0905 25.5774 30.9C25.9001 30.5116 26.0596 30.0132 26.0223 29.5096C25.985 29.0061 25.7538 28.5366 25.3774 28.2L18.3274 22.025Z" fill="#989898"/>
</svg>
