<svg viewBox="0 0 700 100" fill="none" xmlns="http://www.w3.org/2000/svg">
  <rect width="700" height="60" rx="30" fill="#F2F2F2" />
  <rect x="55" y="10" width="223" height="40" rx="20" fill="white" />
  <circle cx="75" cy="30" r="20" fill="white" />
  <circle cx="75" cy="30" r="10" fill="#F2F2F2" />
  <rect x="238" y="10" width="223" height="40" rx="20" fill="white" />
  <circle cx="258" cy="30" r="10" fill="#F2F2F2" />
  <circle cx="441" cy="30" r="10" fill="#E63C2B" />
  <circle cx="624" cy="30" r="10" fill="white" />
  <path d="M47.63 90.858H51.392V89.76H47.63V88.248H46.298V89.76H42.626V90.858H46.298V92.748H40.268V93.882H53.84V92.748H47.63V90.858ZM43.76 85.26H50.294V86.538H43.76V85.26ZM50.294 80.796V82.002H43.76V80.796H50.294ZM43.76 83.01H50.294V84.252H43.76V83.01ZM55.118 87.672V86.538H51.644V80.796H54.344V79.68H51.644V77.952H50.294V79.68H43.76V77.952H42.446V79.68H39.71V80.796H42.446V86.538H38.882V87.672H42.77C41.744 88.95 40.196 90.084 38.702 90.678C39.008 90.93 39.368 91.38 39.566 91.704C41.312 90.894 43.13 89.346 44.264 87.672H49.898C50.978 89.256 52.724 90.75 54.47 91.47C54.668 91.164 55.046 90.696 55.352 90.444C53.84 89.904 52.31 88.86 51.302 87.672H55.118ZM72.812 83.046V81.714H65.684V77.952H64.298V81.714H57.224V83.046H62.66C61.346 86.088 59.132 89.004 56.756 90.462C57.062 90.714 57.494 91.2 57.71 91.524C60.302 89.76 62.624 86.556 64.01 83.046H64.298V89.688H60.122V91.02H64.298V94.368H65.684V91.02H69.86V89.688H65.684V83.046H65.936C67.286 86.556 69.608 89.796 72.272 91.47C72.488 91.11 72.956 90.624 73.298 90.336C70.814 88.932 68.546 86.088 67.25 83.046H72.812ZM84.764 80.202V80.382C84.764 81.318 84.332 82.542 79.67 83.172C79.904 83.388 80.246 83.874 80.39 84.162C83.558 83.676 84.98 82.848 85.574 81.966C86.69 83.064 88.418 83.784 90.47 84.072C90.632 83.748 90.974 83.262 91.226 83.01C88.868 82.812 86.906 82.11 85.952 81.03C85.988 80.814 86.006 80.616 86.006 80.436V80.202H88.868C88.616 80.724 88.292 81.246 88.022 81.624L89.084 82.002C89.57 81.372 90.146 80.328 90.596 79.41L89.696 79.104L89.48 79.158H83.45C83.576 78.834 83.72 78.51 83.828 78.168L82.622 77.898C82.226 79.212 81.488 80.472 80.552 81.318C80.84 81.462 81.344 81.804 81.56 82.002C82.046 81.516 82.514 80.886 82.91 80.202H84.764ZM78.59 89.364H87.608V90.624H78.59V89.364ZM78.59 87.276H87.608V88.5H78.59V87.276ZM78.59 85.188H87.608V86.412H78.59V85.188ZM77.294 91.506H88.94V84.288H77.294V91.506ZM79.634 79.014H75.332V80.058H79.634V79.014ZM80.084 81.804H74.936V82.884H80.084V81.804ZM80.3 91.632C79.022 92.334 76.862 92.982 75.026 93.36C75.332 93.594 75.782 94.098 76.016 94.368C77.798 93.882 80.066 93.036 81.506 92.172L80.3 91.632ZM84.692 92.334C86.636 92.982 88.58 93.756 89.732 94.332L90.902 93.558C89.642 92.982 87.536 92.208 85.61 91.614L84.692 92.334ZM104.798 81.408C104.222 80.742 102.98 79.824 101.972 79.212L101.288 80.112C102.314 80.778 103.538 81.75 104.114 82.434L104.798 81.408ZM104.024 85.71C103.394 85.062 102.062 84.252 101 83.694L100.37 84.63C101.45 85.206 102.728 86.124 103.358 86.79L104.024 85.71ZM98.822 79.032C98.552 80.238 98.048 82.002 97.616 83.064L98.498 83.352C98.984 82.344 99.542 80.67 99.974 79.32L98.822 79.032ZM95.078 83.046C94.952 81.966 94.538 80.346 94.016 79.104L93.044 79.338C93.53 80.598 93.926 82.254 94.034 83.316L95.078 83.046ZM94.466 86.25C94.16 87.852 93.422 89.85 92.684 90.894C92.918 91.29 93.224 91.92 93.368 92.37C94.304 91.074 95.06 88.554 95.438 86.556L94.466 86.25ZM99.992 85.206V83.946H97.04V77.952H95.798V83.946H92.918V85.206H95.798V94.386H97.04V85.206H99.992ZM97.13 86.79C97.508 87.564 98.498 89.85 98.822 90.84L99.776 89.85C99.506 89.238 98.21 86.79 97.868 86.268L97.13 86.79ZM109.316 88.896L109.118 87.672L106.994 88.05V77.952H105.734V88.284L99.938 89.31L100.154 90.552L105.734 89.544V94.368H106.994V89.31L109.316 88.896Z" fill="#C4C4C4" />
  <path d="M209.21 79.14C208.958 80.274 208.4 81.966 207.986 82.974L208.85 83.28C209.318 82.344 209.876 80.778 210.344 79.536L209.21 79.14ZM205.934 82.902C205.754 81.894 205.322 80.346 204.926 79.14L203.936 79.374C204.314 80.562 204.728 82.146 204.908 83.172L205.934 82.902ZM205.394 86.25C205.07 87.852 204.278 89.85 203.54 90.894C203.756 91.236 204.062 91.812 204.188 92.208C205.124 90.948 205.898 88.482 206.276 86.538L205.394 86.25ZM209.894 85.206V83.946H207.68V77.952H206.474V83.946H203.846V85.206H206.474V94.386H207.68V85.206H209.894ZM207.896 86.772C208.256 87.474 209.21 89.616 209.516 90.498L210.434 89.508C210.182 88.968 208.958 86.736 208.634 86.268L207.896 86.772ZM212.468 90.498C212.504 90.03 212.522 89.58 212.522 89.166H217.922V90.498H212.468ZM217.922 86.88V88.212H212.522V86.88H217.922ZM219.182 85.818H211.298V89.13C211.298 90.552 211.172 92.37 210.11 93.72C210.38 93.864 210.848 94.35 211.046 94.602C211.784 93.72 212.144 92.586 212.342 91.452H217.922V92.982C217.922 93.18 217.868 93.252 217.634 93.252C217.418 93.27 216.68 93.27 215.87 93.234C216.032 93.558 216.194 94.008 216.248 94.35C217.382 94.35 218.12 94.35 218.57 94.152C219.056 93.954 219.182 93.63 219.182 92.982V85.818ZM215.798 83.73V82.506H219.722V81.534H215.798V80.436H220.046V79.41H215.798V77.952H214.484V79.41H210.434V80.436H214.484V81.534H210.884V82.506H214.484V83.73H210.236V84.756H220.226V83.73H215.798ZM231.998 82.272H228.758V80.922H231.998V82.272ZM231.998 84.486H228.758V83.19H231.998V84.486ZM231.998 86.79H228.758V85.404H231.998V86.79ZM227.444 88.662H228.758V87.888H237.542V86.79H233.276V85.404H236.732V84.486H233.276V83.19H236.678V82.272H233.276V80.922H237.236V79.878H233.618C233.402 79.356 233.024 78.636 232.682 78.114L231.422 78.474C231.656 78.888 231.908 79.41 232.124 79.878H229.262C229.622 79.338 229.928 78.762 230.198 78.204L228.956 77.844C228.128 79.59 226.778 81.264 225.32 82.362C225.626 82.56 226.148 82.974 226.382 83.208C226.742 82.902 227.084 82.578 227.444 82.2V88.662ZM223.214 88.716C224.312 87.564 225.5 86.16 226.508 84.918L225.788 84.018C224.636 85.368 223.232 86.826 222.278 87.69L223.214 88.716ZM226.688 79.41C226.04 78.96 224.78 78.384 223.79 78.042L223.124 78.96C224.114 79.356 225.338 79.986 225.986 80.436L226.688 79.41ZM225.356 82.254C224.708 81.876 223.43 81.336 222.44 81.066L221.774 81.984C222.764 82.326 224.06 82.884 224.69 83.316L225.356 82.254ZM238.064 89.652H230.63V88.338H229.298V89.652H222.008V90.876H229.298V94.404H230.63V90.876H238.064V89.652ZM244.004 82.956C243.986 84.72 243.86 86.844 243.032 88.914C242.456 88.392 241.862 87.87 241.322 87.42C241.628 86.16 241.952 84.63 242.258 83.064L244.004 82.956ZM245.93 91.92C245.48 91.326 244.742 90.552 243.932 89.76C244.958 87.384 245.12 84.918 245.138 82.884L246.038 82.812V81.642L245.138 81.696V80.49H244.004V81.75L242.474 81.822C242.69 80.508 242.888 79.23 242.996 78.06L241.826 78.006C241.718 79.194 241.538 80.544 241.34 81.894L239.702 81.966L239.846 83.208L241.124 83.136C240.8 84.9 240.422 86.592 240.062 87.816C240.836 88.482 241.7 89.256 242.51 90.048C241.862 91.254 240.944 92.424 239.612 93.486C239.9 93.648 240.314 94.062 240.494 94.296C241.772 93.27 242.708 92.118 243.374 90.912C244.076 91.65 244.706 92.37 245.138 92.946L245.93 91.92ZM248.594 89.778C248.018 91.092 246.884 92.46 245.75 93.144C246.038 93.36 246.452 93.792 246.65 94.098C247.802 93.27 248.972 91.65 249.584 90.12L248.594 89.778ZM248.81 83.694H253.076V85.332H248.81V83.694ZM253.076 81.066V82.65H248.81V81.066H253.076ZM255.956 89.202V88.05H251.654V86.448H254.354V81.066H255.956V79.896H254.354V77.952H253.076V79.896H248.81V77.952H247.586V79.896H245.984V81.066H247.586V86.448H250.358V88.05H246.02V89.202H250.358V94.386H251.654V89.202H255.956ZM252.464 90.21C253.4 91.398 254.552 93.018 255.092 93.99L256.136 93.486C255.578 92.514 254.39 90.93 253.436 89.778L252.464 90.21ZM270.266 88.374V92.1H261.914V88.374H270.266ZM260.564 94.35H261.914V93.342H270.266V94.278H271.652V87.186H260.564V94.35ZM261.986 83.784C263.516 82.776 264.938 81.588 266.108 80.238C267.458 81.678 268.898 82.812 270.482 83.784H261.986ZM266.288 77.898C264.47 80.67 261.176 83.046 257.774 84.396C258.152 84.702 258.512 85.206 258.746 85.566C259.682 85.152 260.6 84.648 261.5 84.108V85.026H270.518V83.802C271.436 84.396 272.408 84.9 273.434 85.404C273.632 84.99 274.01 84.486 274.352 84.198C271.49 82.992 268.988 81.516 266.882 79.284C267.08 79.014 267.278 78.762 267.458 78.474L266.288 77.898ZM285.764 80.202V80.382C285.764 81.318 285.332 82.542 280.67 83.172C280.904 83.388 281.246 83.874 281.39 84.162C284.558 83.676 285.98 82.848 286.574 81.966C287.69 83.064 289.418 83.784 291.47 84.072C291.632 83.748 291.974 83.262 292.226 83.01C289.868 82.812 287.906 82.11 286.952 81.03C286.988 80.814 287.006 80.616 287.006 80.436V80.202H289.868C289.616 80.724 289.292 81.246 289.022 81.624L290.084 82.002C290.57 81.372 291.146 80.328 291.596 79.41L290.696 79.104L290.48 79.158H284.45C284.576 78.834 284.72 78.51 284.828 78.168L283.622 77.898C283.226 79.212 282.488 80.472 281.552 81.318C281.84 81.462 282.344 81.804 282.56 82.002C283.046 81.516 283.514 80.886 283.91 80.202H285.764ZM279.59 89.364H288.608V90.624H279.59V89.364ZM279.59 87.276H288.608V88.5H279.59V87.276ZM279.59 85.188H288.608V86.412H279.59V85.188ZM278.294 91.506H289.94V84.288H278.294V91.506ZM280.634 79.014H276.332V80.058H280.634V79.014ZM281.084 81.804H275.936V82.884H281.084V81.804ZM281.3 91.632C280.022 92.334 277.862 92.982 276.026 93.36C276.332 93.594 276.782 94.098 277.016 94.368C278.798 93.882 281.066 93.036 282.506 92.172L281.3 91.632ZM285.692 92.334C287.636 92.982 289.58 93.756 290.732 94.332L291.902 93.558C290.642 92.982 288.536 92.208 286.61 91.614L285.692 92.334ZM305.798 81.408C305.222 80.742 303.98 79.824 302.972 79.212L302.288 80.112C303.314 80.778 304.538 81.75 305.114 82.434L305.798 81.408ZM305.024 85.71C304.394 85.062 303.062 84.252 302 83.694L301.37 84.63C302.45 85.206 303.728 86.124 304.358 86.79L305.024 85.71ZM299.822 79.032C299.552 80.238 299.048 82.002 298.616 83.064L299.498 83.352C299.984 82.344 300.542 80.67 300.974 79.32L299.822 79.032ZM296.078 83.046C295.952 81.966 295.538 80.346 295.016 79.104L294.044 79.338C294.53 80.598 294.926 82.254 295.034 83.316L296.078 83.046ZM295.466 86.25C295.16 87.852 294.422 89.85 293.684 90.894C293.918 91.29 294.224 91.92 294.368 92.37C295.304 91.074 296.06 88.554 296.438 86.556L295.466 86.25ZM300.992 85.206V83.946H298.04V77.952H296.798V83.946H293.918V85.206H296.798V94.386H298.04V85.206H300.992ZM298.13 86.79C298.508 87.564 299.498 89.85 299.822 90.84L300.776 89.85C300.506 89.238 299.21 86.79 298.868 86.268L298.13 86.79ZM310.316 88.896L310.118 87.672L307.994 88.05V77.952H306.734V88.284L300.938 89.31L301.154 90.552L306.734 89.544V94.368H307.994V89.31L310.316 88.896Z" fill="#C4C4C4" />
  <path d="M404.846 90.57H407.528V92.46H404.846V90.57ZM407.528 86.574H404.846V84.756H407.528V86.574ZM407.528 89.526H404.846V87.618H407.528V89.526ZM400.418 90.858H398.42V85.602H400.418V90.858ZM412.1 92.46H408.77V90.57H411.344V89.526H408.77V87.618H411.344V86.574H408.77V84.756H411.578V83.622H409.112C408.896 83.01 408.464 82.182 408.104 81.516L406.988 81.966C407.24 82.47 407.528 83.082 407.762 83.622H405.422C405.998 82.794 406.502 81.894 406.952 80.922H410.516V82.812H411.722V79.77H407.42C407.636 79.266 407.816 78.708 407.978 78.168L406.718 77.916C406.538 78.546 406.322 79.176 406.088 79.77H402.272V82.848H403.442V80.922H405.548C404.576 82.884 403.244 84.54 401.588 85.692V84.432H398.51C398.888 83.19 399.176 81.822 399.41 80.436H401.894V79.212H395.99V80.436H398.114C397.646 83.406 396.854 86.16 395.558 87.996C395.81 88.266 396.188 88.878 396.332 89.148C396.674 88.698 396.98 88.158 397.268 87.618V93.504H398.42V92.046H401.588V85.764C401.858 86.052 402.218 86.556 402.362 86.826C402.776 86.502 403.208 86.16 403.586 85.782V94.386H404.846V93.612H412.118L412.1 92.46ZM428.228 79.806C428.084 83.442 427.904 84.846 427.616 85.17C427.454 85.35 427.31 85.386 427.022 85.386C426.734 85.386 425.978 85.368 425.15 85.296C425.366 85.638 425.492 86.124 425.528 86.484C426.32 86.52 427.112 86.52 427.562 86.484C428.048 86.448 428.39 86.322 428.696 85.962C429.128 85.404 429.326 83.784 429.524 79.23C429.524 79.05 429.542 78.654 429.542 78.654H420.776V79.806H424.484C424.394 80.688 424.268 81.516 424.034 82.29C423.35 81.696 422.414 80.922 421.658 80.328L420.956 81.084C421.802 81.786 422.9 82.74 423.566 83.424C422.972 84.63 422 85.602 420.398 86.268C420.668 86.484 421.028 86.916 421.172 87.222C424.484 85.746 425.384 83.046 425.708 79.806H428.228ZM423.764 87.24C424.502 88.068 425.312 89.22 425.69 89.922L426.572 89.31C426.176 88.608 425.348 87.528 424.592 86.718L423.764 87.24ZM417.932 80.346C417.68 79.698 417.212 78.708 416.744 77.97L415.61 78.366C416.042 79.14 416.528 80.166 416.726 80.814L417.932 80.346ZM420.11 80.922H413.774V82.038H420.11V80.922ZM419.678 83.352H414.242V84.414H419.678V83.352ZM414.242 86.826H419.678V85.746H414.242V86.826ZM418.436 89.256V92.262H415.376V89.256H418.436ZM419.588 88.158H414.242V94.188H415.376V93.36H419.588V88.158ZM420.596 92.64C421.208 91.65 421.604 90.012 421.838 88.716L420.884 88.428C420.668 89.652 420.236 91.236 419.624 92.208L420.596 92.64ZM424.214 92.91C423.602 92.91 423.476 92.82 423.476 92.388V88.014H422.306V92.388C422.306 93.63 422.666 93.99 424.088 93.99H426.428C427.67 93.99 427.994 93.414 428.12 90.966C427.796 90.894 427.31 90.714 427.058 90.516C427.004 92.604 426.896 92.91 426.302 92.91H424.214ZM427.814 88.032C428.444 89.238 429.074 90.84 429.326 91.812L430.352 91.416C430.1 90.462 429.416 88.896 428.768 87.708L427.814 88.032ZM440.918 87.546C440.918 87.708 440.882 87.78 440.684 87.78C440.504 87.798 439.964 87.798 439.334 87.762C439.478 88.032 439.622 88.392 439.676 88.68C440.54 88.68 441.17 88.68 441.566 88.518C441.962 88.338 442.07 88.104 442.07 87.546V82.812H441.584V82.794H439.226V80.868H442.196V79.734H439.226V78.06H438.056V83.874H440.918V87.546ZM438.632 84.648C438.47 85.746 438.2 86.826 437.642 87.618C437.912 87.744 438.38 88.032 438.578 88.194C439.118 87.33 439.496 86.088 439.676 84.828L438.632 84.648ZM437.138 90.444C436.004 91.434 433.844 92.622 432.134 93.324C432.386 93.612 432.746 94.062 432.926 94.332C434.672 93.576 436.814 92.37 438.29 91.254L437.138 90.444ZM441.728 91.308C443.6 92.226 445.598 93.414 446.822 94.278L447.704 93.27C446.426 92.406 444.374 91.29 442.466 90.39L441.728 91.308ZM446.39 88.914C446.552 86.268 446.642 82.02 446.66 78.852H442.844V80.022H445.436C445.436 80.742 445.418 81.498 445.4 82.272H443.006V83.424H445.382C445.346 84.18 445.328 84.918 445.292 85.638H442.916V86.772H445.256C445.22 87.546 445.166 88.284 445.13 88.914H434.924L434.852 86.718H437.174V85.566H434.798L434.726 83.37H437.102V82.218H434.69L434.618 80.112C435.536 79.824 436.526 79.482 437.354 79.14L436.706 78.042C435.842 78.492 434.492 79.032 433.376 79.428L433.718 88.914H431.9V90.156H448.118V88.914H446.39ZM460.358 86.196V89.598H455.642V86.196H460.358ZM461.618 90.75V85.062H454.4V92.046H455.642V90.75H461.618ZM462.572 82.02H453.5V83.19H462.572V82.02ZM465.398 78.87H450.638V94.422H451.934V80.148H464.084V92.694C464.084 92.982 463.976 93.09 463.652 93.108C463.346 93.126 462.302 93.126 461.168 93.09C461.384 93.45 461.6 94.026 461.654 94.404C463.202 94.404 464.102 94.368 464.66 94.152C465.2 93.918 465.398 93.522 465.398 92.694V78.87ZM469.25 93.9C470.168 93.054 470.906 91.722 471.41 90.642L470.294 90.138C469.862 91.182 469.07 92.478 468.17 93.27L469.25 93.9ZM480.338 86.304H471.734V85.062H480.338V86.304ZM480.338 88.428H471.734V87.186H480.338V88.428ZM481.652 84.144H470.456V89.346H474.974L474.362 89.922C475.352 90.498 476.576 91.344 477.152 91.938L477.98 91.11C477.422 90.588 476.342 89.832 475.406 89.346H481.652V84.144ZM474.794 93.108C473.858 93.108 473.696 93.018 473.696 92.604V90.282H472.382V92.604C472.382 93.882 472.868 94.224 474.686 94.224H478.07C479.51 94.224 479.924 93.738 480.068 91.758C479.726 91.668 479.204 91.488 478.916 91.29C478.826 92.892 478.718 93.108 477.944 93.108H474.794ZM480.32 90.444C481.22 91.416 482.21 92.73 482.606 93.63L483.74 93.054C483.29 92.172 482.282 90.876 481.382 89.976L480.32 90.444ZM478.898 80.364C478.7 80.886 478.376 81.588 478.07 82.146H473.912C473.768 81.624 473.444 80.904 473.12 80.364H478.898ZM479.438 82.146C479.708 81.678 479.996 81.156 480.284 80.598L479.24 80.364H482.822V79.266H477.08C476.864 78.798 476.576 78.222 476.27 77.808L474.974 78.078C475.19 78.438 475.424 78.852 475.604 79.266H469.178V80.364H473.012L471.878 80.616C472.148 81.084 472.382 81.678 472.526 82.146H468.368V83.244H483.74V82.146H479.438Z" fill="#E63C2B" />
  <path d="M606.862 81.282H619.048V83.946H620.416V80.004H614.08C613.828 79.356 613.36 78.474 612.946 77.79L611.596 78.168C611.92 78.708 612.244 79.41 612.496 80.004H605.548V83.946H606.862V81.282ZM617.842 84.432V83.19H608.122V84.432H617.842ZM616.6 92.856C615.862 92.856 615.736 92.766 615.736 92.244V87.78H620.92V86.502H605.098V87.78H609.886C609.67 90.966 608.914 92.496 604.864 93.288C605.116 93.54 605.458 94.062 605.566 94.404C610.03 93.45 610.966 91.506 611.236 87.78H614.404V92.262C614.404 93.684 614.818 94.098 616.456 94.098H619.21C620.632 94.098 621.01 93.486 621.172 91.002C620.794 90.912 620.254 90.714 619.948 90.48C619.876 92.532 619.768 92.856 619.084 92.856H616.6ZM634.06 78.834C635.194 79.446 636.562 80.364 637.246 80.994L638.074 80.076C637.372 79.446 635.968 78.582 634.852 78.024L634.06 78.834ZM636.616 83.694C636.058 85.512 635.284 87.132 634.312 88.554C633.826 86.844 633.502 84.702 633.322 82.308H639.046V80.994H633.232C633.178 80.022 633.16 79.014 633.16 77.97H631.774C631.792 78.996 631.81 80.004 631.882 80.994H624.376V86.016C624.376 88.338 624.214 91.416 622.738 93.612C623.044 93.774 623.62 94.242 623.854 94.512C625.474 92.172 625.744 88.554 625.744 86.034V85.89H629.02C628.948 88.986 628.858 90.12 628.606 90.39C628.498 90.552 628.318 90.588 628.066 90.588C627.76 90.588 626.986 90.57 626.158 90.498C626.374 90.84 626.518 91.344 626.536 91.758C627.418 91.794 628.228 91.794 628.678 91.758C629.182 91.704 629.488 91.578 629.758 91.236C630.136 90.768 630.244 89.256 630.334 85.224V84.648H625.744V82.308H631.954C632.188 85.206 632.62 87.852 633.268 89.886C632.116 91.236 630.73 92.352 629.128 93.216C629.434 93.468 629.902 94.008 630.1 94.278C631.486 93.468 632.728 92.46 633.808 91.29C634.636 93.144 635.716 94.242 637.102 94.242C638.47 94.242 638.956 93.36 639.208 90.3C638.848 90.192 638.362 89.886 638.056 89.58C637.93 91.974 637.714 92.91 637.21 92.91C636.292 92.91 635.464 91.884 634.798 90.12C636.13 88.41 637.192 86.358 637.966 84.036L636.616 83.694Z" fill="#C4C4C4" />
</svg>