<svg width="47" height="169" viewBox="0 0 47 169" fill="none" xmlns="http://www.w3.org/2000/svg">
<g filter="url(#filter0_d)">
<path d="M7.76 20.16C6.81333 20.16 6.05333 19.8667 5.48 19.28C4.90667 18.68 4.58 17.8933 4.5 16.92L6.28 16.38C6.38667 17.1133 6.56667 17.6667 6.82 18.04C7.07333 18.4 7.44667 18.58 7.94 18.58C8.32667 18.58 8.62 18.4733 8.82 18.26C9.02 18.0333 9.12 17.7333 9.12 17.36C9.12 17.0267 9.04667 16.7267 8.9 16.46C8.75333 16.1933 8.51333 15.92 8.18 15.64L6.2 13.94C5.8 13.5933 5.46 13.2067 5.18 12.78C4.91333 12.3533 4.78 11.8 4.78 11.12C4.78 10.5067 4.9 9.99333 5.14 9.58C5.39333 9.15333 5.74 8.83333 6.18 8.62C6.63333 8.39333 7.16 8.28 7.76 8.28C8.68 8.28 9.38 8.58 9.86 9.18C10.3533 9.76667 10.6333 10.48 10.7 11.32L9.26 11.86C9.20667 11.46 9.12667 11.1133 9.02 10.82C8.91333 10.5133 8.76667 10.28 8.58 10.12C8.39333 9.94667 8.14667 9.86 7.84 9.86C7.49333 9.86 7.21333 9.98 7 10.22C6.8 10.4467 6.7 10.72 6.7 11.04C6.7 11.24 6.74 11.44 6.82 11.64C6.91333 11.8267 7.06667 12.0133 7.28 12.2L9.32 14.08C9.6 14.3333 9.86 14.6067 10.1 14.9C10.3533 15.1933 10.56 15.5267 10.72 15.9C10.88 16.2733 10.96 16.7067 10.96 17.2C10.96 17.8533 10.8267 18.4 10.56 18.84C10.2933 19.28 9.92 19.6133 9.44 19.84C8.96 20.0533 8.4 20.16 7.76 20.16ZM15.7205 20.16C14.7738 20.16 14.0538 19.9733 13.5605 19.6C13.0805 19.2133 12.7538 18.6733 12.5805 17.98C12.4205 17.2867 12.3405 16.48 12.3405 15.56V12.9C12.3405 11.9267 12.4271 11.1 12.6005 10.42C12.7738 9.72667 13.1005 9.2 13.5805 8.84C14.0738 8.46667 14.7871 8.28 15.7205 8.28C16.5605 8.28 17.2071 8.42 17.6605 8.7C18.1271 8.96667 18.4471 9.37333 18.6205 9.92C18.7938 10.4533 18.8805 11.12 18.8805 11.92V12.6H16.9405V11.9C16.9405 11.3933 16.9071 10.9933 16.8405 10.7C16.7738 10.4067 16.6538 10.1933 16.4805 10.06C16.3071 9.92667 16.0605 9.86 15.7405 9.86C15.3938 9.86 15.1271 9.94 14.9405 10.1C14.7538 10.26 14.6271 10.5333 14.5605 10.92C14.5071 11.2933 14.4805 11.8067 14.4805 12.46V16.1C14.4805 17.0867 14.5738 17.7467 14.7605 18.08C14.9471 18.4133 15.2805 18.58 15.7605 18.58C16.1205 18.58 16.3805 18.5 16.5405 18.34C16.7138 18.1667 16.8205 17.9267 16.8605 17.62C16.9138 17.3133 16.9405 16.9667 16.9405 16.58V15.64H18.8805V16.44C18.8805 17.2133 18.7871 17.88 18.6005 18.44C18.4271 19 18.1071 19.4267 17.6405 19.72C17.1871 20.0133 16.5471 20.16 15.7205 20.16ZM20.8431 20V8.44H22.9831V10.08C23.4098 9.37333 23.8365 8.9 24.2631 8.66C24.6898 8.42 25.1165 8.3 25.5431 8.3C25.5965 8.3 25.6431 8.3 25.6831 8.3C25.7365 8.3 25.8031 8.30667 25.8831 8.32V10.68C25.7231 10.6133 25.5365 10.56 25.3231 10.52C25.1231 10.4667 24.9165 10.44 24.7031 10.44C24.3698 10.44 24.0631 10.52 23.7831 10.68C23.5165 10.8267 23.2498 11.12 22.9831 11.56V20H20.8431ZM30.3889 20.16C29.5356 20.16 28.8622 19.9867 28.3689 19.64C27.8756 19.2933 27.5222 18.8 27.3089 18.16C27.1089 17.52 27.0089 16.7667 27.0089 15.9V12.54C27.0089 11.6733 27.1089 10.92 27.3089 10.28C27.5222 9.64 27.8756 9.14667 28.3689 8.8C28.8622 8.45333 29.5356 8.28 30.3889 8.28C31.2422 8.28 31.9089 8.45333 32.3889 8.8C32.8822 9.14667 33.2289 9.64 33.4289 10.28C33.6422 10.92 33.7489 11.6733 33.7489 12.54V15.9C33.7489 16.7667 33.6422 17.52 33.4289 18.16C33.2289 18.8 32.8822 19.2933 32.3889 19.64C31.9089 19.9867 31.2422 20.16 30.3889 20.16ZM30.3889 18.58C30.8022 18.58 31.0889 18.46 31.2489 18.22C31.4222 17.98 31.5222 17.6667 31.5489 17.28C31.5889 16.88 31.6089 16.4667 31.6089 16.04V12.42C31.6089 11.98 31.5889 11.5667 31.5489 11.18C31.5222 10.7933 31.4222 10.48 31.2489 10.24C31.0889 9.98667 30.8022 9.86 30.3889 9.86C29.9756 9.86 29.6822 9.98667 29.5089 10.24C29.3356 10.48 29.2289 10.7933 29.1889 11.18C29.1622 11.5667 29.1489 11.98 29.1489 12.42V16.04C29.1489 16.4667 29.1622 16.88 29.1889 17.28C29.2289 17.6667 29.3356 17.98 29.5089 18.22C29.6822 18.46 29.9756 18.58 30.3889 18.58ZM35.905 20V3.8H38.045V20H35.905ZM40.4753 20V3.8H42.6153V20H40.4753Z" fill="white"/>
<line x1="22.5" y1="37" x2="22.5" y2="161" stroke="white"/>
</g>
<defs>
<filter id="filter0_d" x="0.5" y="3.79999" width="46.1153" height="165.2" filterUnits="userSpaceOnUse" color-interpolation-filters="sRGB">
<feFlood flood-opacity="0" result="BackgroundImageFix"/>
<feColorMatrix in="SourceAlpha" type="matrix" values="0 0 0 0 0 0 0 0 0 0 0 0 0 0 0 0 0 0 127 0" result="hardAlpha"/>
<feOffset dy="4"/>
<feGaussianBlur stdDeviation="2"/>
<feComposite in2="hardAlpha" operator="out"/>
<feColorMatrix type="matrix" values="0 0 0 0 0 0 0 0 0 0 0 0 0 0 0 0 0 0 0.25 0"/>
<feBlend mode="normal" in2="BackgroundImageFix" result="effect1_dropShadow"/>
<feBlend mode="normal" in="SourceGraphic" in2="effect1_dropShadow" result="shape"/>
</filter>
</defs>
</svg>
