<svg width="25" height="25" viewBox="0 0 25 25" fill="none" xmlns="http://www.w3.org/2000/svg">
<g clip-path="url(#clip0_5506_14867)">
<path fill-rule="evenodd" clip-rule="evenodd" d="M14.334 10.5787C17.2964 7.07678 20.2593 3.5735 23.2216 0.071161C23.2419 0.0505618 23.2617 0.0304307 23.282 0.00983146C22.5798 0.00702247 21.8775 0.00327715 21.1753 0C18.5774 3.06039 15.979 6.12219 13.3811 9.18258C11.3118 6.12219 9.24147 3.06039 7.17209 0H0C3.12595 4.6264 6.25283 9.25421 9.37878 13.8811C9.38569 13.8881 9.39214 13.8947 9.39905 13.9017C6.28278 17.5833 3.16604 21.2669 0.0502254 24.949C0.0336372 24.9658 0.0165882 24.9831 0 25H2.11638C4.85804 21.7664 7.60016 18.5314 10.3418 15.2978C12.5282 18.5314 14.7156 21.7664 16.902 25H24.0741C20.8279 20.1934 17.5807 15.3853 14.334 10.5787ZM2.89879 1.62032H6.14869C11.1505 8.88624 16.1532 16.1545 21.155 23.4199C21.1582 23.4302 21.1619 23.4405 21.1652 23.4504H17.9051C12.9038 16.1746 7.90059 8.89654 2.89879 1.62032Z" fill="black"/>
</g>
<defs>
<clipPath id="clip0_5506_14867">
<rect width="24.0741" height="25" fill="white"/>
</clipPath>
</defs>
</svg>
