<svg viewBox="0 0 240 367" fill="none" xmlns="http://www.w3.org/2000/svg">
  <text fill="black" xml:space="preserve" style="white-space: pre" font-family="Noto Sans TC" font-size="22" letter-spacing="0em">
    <tspan x="52" y="158.592">&#21069;&#30651;&#20839;&#23481;&#21147;&#31574;&#36914;</tspan>
  </text>
  <path fill-rule="evenodd" clip-rule="evenodd" d="M0 30V357C0 362.523 4.47716 367 10 367H230C235.523 367 240 362.523 240 357V17C240 11.4772 235.523 7 230 7H81V9H230C234.418 9 238 12.5817 238 17V357C238 361.418 234.418 365 230 365H10C5.58173 365 2 361.418 2 357V30H0Z" fill="black" />
  <text fill="black" xml:space="preserve" style="white-space: pre" font-family="Oswald" font-size="20" font-weight="500" letter-spacing="0.05em">
    <tspan x="0" y="24.04">SERVICE</tspan>
  </text>
  <text fill="#E53C2B" xml:space="preserve" style="white-space: pre" font-family="Oswald" font-size="50" font-weight="500" letter-spacing="0.05em">
    <tspan x="88" y="89.6">03.</tspan>
  </text>
  <line x1="20" y1="117" x2="220" y2="117" stroke="black" stroke-width="2" />
  <line x1="20" y1="182" x2="220" y2="182" stroke="black" stroke-width="2" />
  <text fill="#E53C2B" xml:space="preserve" style="white-space: pre" font-family="Noto Sans TC" font-size="18" letter-spacing="0em" text-decoration="underline">
    <!-- <tspan x="83.5" y="343.848">&#x76f8;&#x95dc;&#x9023;&#x7d50;</tspan> -->
  </text>
  <text fill="black" xml:space="preserve" style="white-space: pre" font-family="Noto Sans TC" font-size="18" letter-spacing="0em">
    <tspan x="40" y="216.848">a.&#25903;&#25345;&#20839;&#23481;&#32080;&#21512;&#26032;&#24037;</tspan>
    <tspan x="55" y="246.848">&#20855;&#12289;&#26032;&#25216;&#34899;&#30332;&#23637;&#21109;</tspan>
    <tspan x="55" y="276.848">&#24847;&#20839;&#23481;</tspan>
    <tspan x="40" y="306.848">b.&#23565;&#25509;&#25237;&#34701;&#36039;&#26381;&#21209;</tspan>
    <tspan x="40" y="336.848">c.&#36899;&#32080;&#26032;&#21109;&#21152;&#36895;&#22120;</tspan>
  </text>
</svg>