{
  "type": "service_account",
  "project_id": "mengwei",
  "private_key_id": "7118208d4649d148c493e70bd7ccb3b858f564ac",
  "private_key": "-----BEGIN PRIVATE KEY-----\nMIIEvAIBADANBgkqhkiG9w0BAQEFAASCBKYwggSiAgEAAoIBAQD7UpRNMRgpbVxJ\nEMHFdM5rlXFRqTuvqMzfCZXi7gARwbZcLMu+OrBxTT2HIs4dTx6Lt/vAloxFzoh5\nNWR8JjfCOm5itixeLqrsGJQLVOyDHJHABuiHV4hFaTFefaviYdEoLeDezp1PRAun\nS4csv4JP2kZX5CPMvQWE7UE4Cg/SYkL2tO2prkmjbUTqNzLbcYzQEw93dKdqWsRN\nYGQ6O79gfrIUOTrb84GdhoNBVTQEggBXn9slgV2SaCmLu0KDR0s+dMgkujszomO9\nwYN34V2qoO7Q+doLqy3cfS59GA665s13k3+F22eITmzOjFbto7g5dW1wJhgKUpQd\nj7/UsBrJAgMBAAECggEACXlS8tf7b7BaLrzteQqOr3qKM4hcIiKMWooLdur+4Kx7\nOd1MbubaeOLvA1WaDHvLjHvKhzeFoSoIdf0/xPhR2MYIHDt+z6wVsGG6zvSMF+Mv\nUVxRTqzLi8ZL4KJ/JMEIN+oG1I9YWcEYaV2NAnBTsrvpM+37NYAYoaqp7zld4FHV\n0an+QQCS0exjliQujDpBNvHR8vSAbOx7Np8UjfAe7pAa12XVyRsCQ96D+5entUyo\nLpLMZagQVrnYckzuW4tRTr7UXISEkXyjrzvBwTgA7WJpOqvV7dWBpMrjsL6bhTPn\nvrFaGbSZz/c9Q75XmoVptrObN9I5GW/vVnnS8QFaWwKBgQD/C615HHarIonE/RkQ\n5B3dgiQYwGS/KWB+5/9TOOyUmrdSnzGRhUgeuR9Y6PybQQouVdbryZ8fYq20a3ZB\nangpao0eGQdzvuhbcYkrswBbjQXU2Az3DKIwBIOW9fuNmar06hwDa7Xz/K4OyUZY\nac3FL8if09KDbFQS0Z0ZP5bscwKBgQD8Q1XNdd5DUNZ+eO3F6B1kd9hijs9Pkswl\nDhkvkmosnmX6N6q+o6FzsRSlLb4q7ZrLgbWPgzZv1/DXcuvfUYY/t2T8IXi90Y0Y\nHQaoLs5x1SN1DFkO92zwImyqryFza2IxFoyyckGvy45qqhMHE/koIfD+yYMZjG0y\njXj0UTHo0wKBgB3wM/vMgI2UL1HlV+TosizHUw9ovirGY6Jh/1G4k+TZyH01XK81\nUwLwPiLErqpW1ygbQXBKKZiYj8Vm++mv4s0RyeDnlT1cApCBYlWz3G3ivvV+Kv9x\nBzTVwtCcrVuw1yWKuaEZKrGqTpBDxjMosFPeSRGh3ss4kyHmYyeMlF3LAoGAblMs\nlVz1Rc92330X0DQBlszrL79xX0W+Tn5p+Wo5USY9Rz9NR27cz3Ikq1DkGHYt+s7R\njuA90JBKXo9+JP7MjdUxLyucWLfq0x7uqGNAGnyysyAhWvBPDn6fs84//PB70ygf\nhHN/0thdgry68Z+Emk6tzWBoG6ZUo4VH3uIbx80CgYAUdtTTuOk0IzV8lFc9eSdb\nrhMApNXBSzrZzzi6MjQieIWyFhmjvyAnX/W/3uOlyDkeEUmUxZ0mL4cIsxxFDS7s\n7uCO16XfwI4mB5ToO8ZZtuoCBR1ghNinB0bfNmOP1a5/e+WzZBjcyAhLVDUpodG6\nWqTyon8/wKmm1csw38Ud9g==\n-----END PRIVATE KEY-----\n",
  "client_email": "mengwei@mengwei.iam.gserviceaccount.com",
  "client_id": "113643093690121569573",
  "auth_uri": "https://accounts.google.com/o/oauth2/auth",
  "token_uri": "https://oauth2.googleapis.com/token",
  "auth_provider_x509_cert_url": "https://www.googleapis.com/oauth2/v1/certs",
  "client_x509_cert_url": "https://www.googleapis.com/robot/v1/metadata/x509/mengwei%40mengwei.iam.gserviceaccount.com"
}
