{
  "type": "service_account",
  "project_id": "taicca-411312",
  "private_key_id": "cec36269d143045315139a8575df4f3a7ff61026",
  "private_key": "-----BEGIN PRIVATE KEY-----\nMIIEvgIBADANBgkqhkiG9w0BAQEFAASCBKgwggSkAgEAAoIBAQDUL7v1/CaEqKlc\nkLzEZoArM5ojjQ5O7gBapNE/oDoHf0Z1apZwrYrfhm9Jm+F9HBKwG27Bo/pr7MSB\nuQaa3UDd07TNh6PJGwvFXnG3SIavswTWdsm7JV2Rl0zpKn0CxDo1rt4ptNweWGQx\nKRBCB4m4wDLR/c2YKm5lPGV8G2NQlbGzFi0LYDBBPTJi2p06XHXCT54oTV0EgDXl\nxqlD+yAdhefnd3M2qNODnURUhHjHRKt6cvigLk7CRTdST8RIrEijwYbLPoeUJzin\nYJpPTtrX4FqbNVS0duDkZuwQ/u8Gzy4Ad0H8Wk4OMNwOMQTw8eLvoC82+xFgwcQ4\nA5qDjm2XAgMBAAECggEACHZzlYQo2HSjoJdTOArAhOM/fA3VqsHk+LiHHKBcKs1h\njDBOmhA0hZAROIsuNfUHLR1C+xfPq+XwZnNwjH+o5SVa74bqj4xJGWZCvHp43gwS\nntJztEecEOugZnz1KcWVbsEFMlOjeIBc//Wbz45eaKRzF8X6y7KxiXnHBb6lOjhT\nkInzlv806/DAGyF7alzZ6yd09IZeGV5SJfBxme54ASPbNxpFzgE5XAU0Rqf6Om2V\n3Nk6ZU/QYEKwvNd+qfsshRyz/D99D0KAnEwGtj2eY/WXrw0URp6EpsXzBrd6qOTi\nIaZMA36DJRYNloRwrgsjvzk4Hm4BPzsupnm+RYs0nQKBgQD5tUZgCC53mWGKdTqW\nc9V0Gyrbu1QzmPZaP7GeMQLKJBtt6vpkT8i7IwhehT/rUMm1ebMKFcLVaBNK8iSY\nFqhVAPAjVEuTiFrJZ+TGjNprax1rKMcZ1BNrEILxzwyi0yoXYZmjG8Lr3JH2lu4F\nwr+Xb2FitrJRnFrDKc2PL9LkHQKBgQDZiG2zbCQZaAyfJDwOsPRQJtI3tg3hYMoK\nPjDnQaXs23GGrHCQRTSdY5yOl015+18AzJZp7Ok6PR3UVABSuJGfWLhv04WKPv/A\ncaYBiXQpRoihZAYesv85b2j76AUyKXie81BPKG2ZLYEOcnGMVJ+E3/Pn+aL3s2JM\nWzPl4r6CQwKBgCvucoUuq04rU/fSDA6wLluQ9AdYe8XgIWdbUVptcPozRAggkRDY\n4I3b6fsHImm5+uLMmG0ryu1UtCA5XarMQa1CzvzINcus75wDhUJRQZQocjKKKA0p\nPIlXjFIShTyYPg2DBE6n8bEhSyTBBPtKef6gf9eoINMu2OEBF8MbPNUZAoGBAItL\nj2OrRdp3BE4Lt+F4cpm4ojhGfdDqV7YDaPFM2mE3jBS+6z2W80AtfxzXyiboTkeG\nunKN4DMI28cRGzvdMHKnL0N8YTDLcp3aqICnchjUL72Y/Uo/OKugqctVIa6jW7f8\n+loV+0hxGQkVQ5ymu5csiVTsR+zxk2ptpGf6sB9dAoGBAM8jtsA9y71wDQLRPBVY\n8ZLRHqU1dsJEJ5zv0egqMTP0OMaARJOz7+fqkXVT/eNir4/+LI3WhyBR5zIlifBG\n/9e8OY0u1yDg1IC2P4Fe/MXGCHGhVn/ixH2lbZ1rKehPgCrHo9kDM/Hwxd5WT8vQ\nqN8KGq27Hvy+vxMarAULjhqU\n-----END PRIVATE KEY-----\n",
  "client_email": "taicca@taicca-411312.iam.gserviceaccount.com",
  "client_id": "114725627980576848029",
  "auth_uri": "https://accounts.google.com/o/oauth2/auth",
  "token_uri": "https://oauth2.googleapis.com/token",
  "auth_provider_x509_cert_url": "https://www.googleapis.com/oauth2/v1/certs",
  "client_x509_cert_url": "https://www.googleapis.com/robot/v1/metadata/x509/taicca%40taicca-411312.iam.gserviceaccount.com",
  "universe_domain": "googleapis.com"
}
