<svg viewBox="0 0 340 340" fill="none" xmlns="http://www.w3.org/2000/svg">
  <rect width="340" height="340" rx="20" fill="#FAFAFA" />
  <path d="M287.946 201.465H273.573V194.175C285.215 193.906 285.486 182.871 285.486 179.213C285.486 179.089 285.469 166.92 283.813 154.888C281.793 140.216 278.393 133.669 273.125 133.669H272.873C267.604 133.669 264.209 140.216 262.189 154.888C260.532 166.92 260.517 179.232 260.517 179.356C260.517 182.919 260.561 193.336 271.518 194.141V201.465H258.507V176.24C258.507 175.104 257.579 174.758 256.444 174.758H252.02C251.492 165.17 249.192 150.104 239.807 150.104H239.555C230.17 150.104 227.87 165.17 227.344 174.758H216.048V138.576C216.048 138.474 216.029 138.378 216.014 138.28L220.629 139.165C220.76 139.191 220.887 139.203 221.015 139.203C221.981 139.203 222.842 138.518 223.031 137.535C223.244 136.42 222.513 135.344 221.399 135.13L101.274 112.083C100.16 111.871 99.0835 112.601 98.8692 113.713C98.6562 114.828 99.3903 115.904 100.504 116.119L103.738 116.739V150.789H89.3489C88.2148 150.789 87.302 151.136 87.302 152.272V200.209C87.302 200.45 87.3438 201.466 87.4198 201.466H71.5526V195.063C77.716 194.904 83.2417 192.805 83.2417 180.799C83.2417 174.836 81.9817 165.889 80.108 158.535C77.5276 148.401 74.4521 143.475 70.7096 143.475C66.9657 143.475 63.8909 148.401 61.3092 158.535C59.4369 165.889 58.1803 174.837 58.1803 180.799C58.1803 192.558 63.3342 194.816 69.4975 195.052V201.465H53.0544C51.9204 201.465 51 202.386 51 203.52C51 204.655 51.9204 205.574 53.0544 205.574H287.946C289.08 205.574 290 204.655 290 203.52C290 202.386 289.08 201.465 287.946 201.465ZM266.259 155.448C268.083 142.194 270.961 137.778 272.873 137.778H273.124C275.034 137.778 277.912 142.195 279.737 155.448C281.355 167.205 281.374 179.234 281.374 179.356C281.374 187.175 279.061 190.36 273.124 190.36C273.1 190.36 273.076 190.508 273.053 190.508H272.838C266.926 190.508 264.621 187.379 264.621 179.569C264.622 179.447 264.641 167.205 266.259 155.448ZM62.2864 180.798C62.2864 175.233 63.5225 166.493 65.2907 159.547C67.7957 149.713 70.2385 147.583 70.7076 147.583C71.1787 147.583 73.6194 149.712 76.1244 159.547C77.894 166.495 79.1301 175.232 79.1301 180.798C79.1301 190.258 75.7957 190.966 70.7076 190.966C65.6208 190.966 62.2864 190.259 62.2864 180.798ZM231.472 174.472C232.087 164.854 234.451 154.213 239.555 154.213H239.807C244.912 154.213 247.274 164.854 247.889 174.472C247.979 175.884 248.033 177.122 248.05 178.438C248.055 178.789 248.058 179.064 248.058 179.405C248.058 187.181 245.744 190.011 239.807 190.011C239.776 190.011 239.744 189.824 239.713 189.824H239.509C233.606 189.824 231.304 186.935 231.304 179.171C231.304 178.83 231.307 178.708 231.312 178.357C231.331 177.041 231.383 175.883 231.472 174.472ZM196.181 182.976H194.134V134.081L212.222 137.552C212.046 137.854 211.939 138.2 211.939 138.575V182.976H196.181ZM192.08 182.976H172.22V129.877L192.08 133.686V182.976ZM170.166 182.976H150.306V125.672L170.166 129.483V182.976ZM148.252 182.976H129.077V121.599L148.252 125.279V182.976ZM127.023 121.205V182.976H107.848V152.272V117.527L127.023 121.205ZM91.4122 178.182H103.739V182.291H91.4122V178.182ZM91.4122 172.018H103.739V176.127H91.4122V172.018ZM103.739 169.964H91.4122V165.855H103.739V169.964ZM91.4122 184.345H103.739V184.457V189.139H91.4122V184.345ZM103.739 163.801H91.4122V159.692H103.739V163.801ZM91.4122 191.193H103.739V195.302H91.4122V191.193ZM91.4122 154.898H103.739V157.637H91.4122V154.898ZM91.4122 200.208V197.357H103.739V201.465H91.2787C91.3554 201.465 91.4122 200.449 91.4122 200.208ZM185.917 201.465H182.492V192.563H185.917V201.465ZM186.936 190.508H181.457C180.89 190.508 180.438 190.396 180.438 190.963V201.465H107.848V187.084H194.134V201.465H187.971V190.963C187.971 190.396 187.503 190.508 186.936 190.508ZM198.243 187.084H213.986C215.12 187.084 216.048 185.591 216.048 184.457V178.867H227.203C227.198 178.867 227.2 179.307 227.2 179.62C227.2 183.218 227.005 193.685 238.647 194.232V201.465H198.243V187.084ZM240.702 194.222C252.343 193.692 252.17 183.218 252.17 179.62C252.17 179.307 252.164 178.867 252.159 178.867H254.398V201.465H240.702V194.222Z" fill="#E53C2B" />
</svg>